{
  "id": 153025,
  "title": "ICT an der Schule",
  "cover": "cover.jpg",
  "subtitle": "eigene Geräte reflektiert verwenden",
  "base": "ict/basics",
  "icon": "mdi-cellphone-link",
  "items": [
    {
      "id": 481558,
      "title": "1 Internet",
      "page": "1-internet/",
      "items": [
        {
          "id": 974771,
          "title": "1.1 Browser",
          "page": "1-internet/1-browser/"
        },
        {
          "id": 945271,
          "title": "1.2 Suchmaschinen",
          "page": "1-internet/2-search-engine/"
        },
        {
          "id": 656933,
          "title": "1.3 Links / URLs",
          "page": "1-internet/3-links/"
        },
        {
          "id": 640322,
          "title": "1.4 E-Mail verwenden",
          "page": "1-internet/4-e-mail-usage/"
        }
      ]
    },
    {
      "id": 788086,
      "title": "2 Sicherheit",
      "page": "2-security/",
      "items": [
        {
          "id": 78122,
          "title": "2.1 Datenverlust",
          "page": "2-security/1-data-loss/"
        },
        {
          "id": 611147,
          "title": "2.2 Authentifizierung",
          "page": "2-security/2-authentication/"
        },
        {
          "id": 357775,
          "title": "2.3 Sichere Passwörter",
          "page": "2-security/3-secure-passwords/"
        },
        {
          "id": 108006,
          "title": "2.4 Schadsoftware",
          "page": "2-security/4-malicious-software/"
        }
      ]
    },
    {
      "id": 218691,
      "title": "3 Apps und Dokumente",
      "page": "3-apps/"
    },
    {
      "id": 589326,
      "title": "4 Tastatur",
      "page": "4-keyboard/",
      "items": [
        {
          "id": 289695,
          "title": "Spezielle Tasten",
          "page": "4-keyboard/1-special-keys/"
        },
        {
          "id": 470269,
          "title": "Windows-Tastatur",
          "icon": "mdi-microsoft-windows",
          "page": "4-keyboard/2-windows/"
        },
        {
          "id": 470270,
          "title": "Apple-Tastatur",
          "icon": "mdi-apple",
          "page": "4-keyboard/3-apple/"
        },
        {
          "id": 758852,
          "title": "Zehnfingersystem",
          "page": "4-keyboard/4-touch-typing/"
        },
        {
          "id": 495581,
          "title": "TIPP 10",
          "page": "4-keyboard/5-tipp-10/"
        },
        {
          "id": 585797,
          "title": "Neo-Tastaturbelegung",
          "icon": "mdi-star",
          "page": "4-keyboard/6-neo/"
        }
      ]
    }
  ]
}
