{
  "author_name": "Uwe Baumann",
  "author_uri": "https://pixabay.com/de/users/weinstock-25534/",
  "licence": "CC0",
  "source_name": "Pixabay",
  "source_uri": "https://pixabay.com/images/id-96233/"
}
