<?xml version="1.0" encoding="UTF-8" standalone="no"?>
<!DOCTYPE svg PUBLIC "-//W3C//DTD SVG 1.1//EN" "http://www.w3.org/Graphics/SVG/1.1/DTD/svg11.dtd">
<svg width="1080px" height="800px" version="1.1" xmlns="http://www.w3.org/2000/svg" xmlns:xlink="http://www.w3.org/1999/xlink" xml:space="preserve" xmlns:serif="http://www.serif.com/" style="fill-rule:evenodd;clip-rule:evenodd;stroke-linecap:round;stroke-miterlimit:1;">
    <g id="Spezialtasten">
        <g id="Leer-Taste">
            <path d="M775,312C775,303.169 767.831,296 759,296L332,296C323.169,296 316,303.169 316,312L316,344C316,352.831 323.169,360 332,360L759,360C767.831,360 775,352.831 775,344L775,312Z" style="fill:rgb(188,170,164);stroke:black;stroke-width:2px;"/>
        </g>
        <g id="Enter-Taste">
            <path d="M980,90C980,85 984,81 988.05,81C996,81 1056,80 1064,80C1068,80 1072,84 1072,88L1072,208C1072,211.771 1068,216 1064,216L1012,216C1008.23,216 1004,212 1004,208L1004,152C1004,151.949 1004,151.897 1004,151.843C1004,148 1000.99,144 996,144L988,144C984,144 980,141 980,137L980,90Z" style="fill:white;stroke:black;stroke-width:2px;stroke-linejoin:round;stroke-miterlimit:4;"/>
            <path d="M1053,113L1053,117L1039.83,117L1043.41,113.41L1042,112L1036,118L1042,124L1043.41,122.58L1039.83,119L1055,119L1055,113L1053,113Z" style="fill-rule:nonzero;"/>
        </g>
        <g id="Tabulator-Taste">
            <path d="M108,96C108,87.169 100.831,80 92,80L24,80C15.169,80 8,87.169 8,96L8,128C8,136.831 15.169,144 24,144L92,144C100.831,144 108,136.831 108,128L108,96Z" style="fill:white;stroke:black;stroke-width:2px;"/>
            <path d="M92,118L94,118L94,106L92,106M83.59,107.41L87.17,111L73,111L73,113L87.17,113L83.59,116.58L85,118L91,112L85,106L83.59,107.41Z" style="fill-rule:nonzero;"/>
        </g>
        <g id="Rückschritt-Taste">
            <path d="M1072,24C1072,15.169 1064.83,8 1056,8L960,8C951.169,8 944,15.169 944,24L944,56C944,64.831 951.169,72 960,72L1056,72C1064.83,72 1072,64.831 1072,56L1072,24Z" style="fill:white;stroke:black;stroke-width:2px;"/>
            <path d="M1057,43.59L1055.59,45L1052,41.41L1048.41,45L1047,43.59L1050.59,40L1047,36.41L1048.41,35L1052,38.59L1055.59,35L1057,36.41L1053.41,40L1057,43.59M1060,31C1061.1,31 1062,31.903 1062,33L1062,47C1062,48.097 1061.1,49 1060,49L1045,49C1044.31,49 1043.77,48.64 1043.41,48.11L1038,40L1043.41,31.88C1043.77,31.35 1044.31,31 1045,31L1060,31M1060,33L1045,33L1040.28,40L1045,47L1060,47L1060,33Z" style="fill-rule:nonzero;"/>
        </g>
    </g>
    <g id="Umschalttasten">
        <g id="rechte-Shift-Taste" serif:id="rechte Shift-Taste">
            <path d="M1072,240C1072,231.169 1064.83,224 1056,224L908,224C899.169,224 892,231.169 892,240L892,272C892,280.831 899.169,288 908,288L1056,288C1064.83,288 1072,280.831 1072,272L1072,240Z" style="fill:white;stroke:black;stroke-width:2px;"/>
            <path d="M1057,262L1057,256L1059.17,256L1054,250.83L1048.83,256L1051,256L1051,262L1057,262M1054,248L1064,258L1059,258L1059,264L1049,264L1049,258L1044,258L1054,248Z" style="fill-rule:nonzero;"/>
        </g>
        <g id="rechte-Ctrl-Taste" serif:id="rechte Ctrl-Taste">
            <path d="M1072,312C1072,303.169 1064.83,296 1056,296L943,296C934.169,296 927,303.169 927,312L927,344C927,352.831 934.169,360 943,360L1056,360C1064.83,360 1072,352.831 1072,344L1072,312Z" style="fill:white;stroke:black;stroke-width:2px;"/>
            <text x="983.748px" y="335.183px" style="font-family:'Helvetica';font-size:20px;">C<tspan x="998.601px 1004.32px 1011.17px " y="335.183px 335.183px 335.183px ">trl</tspan></text>
        </g>
        <g id="Windows-Taste">
            <path d="M920,311.985C920,303.155 912.831,295.985 904,295.985L872,295.985C863.169,295.985 856,303.155 856,311.985L856,343.985C856,352.816 863.169,359.985 872,359.985L904,359.985C912.831,359.985 920,352.816 920,343.985L920,311.985Z" style="fill:white;stroke:black;stroke-width:2px;"/>
            <path d="M879.5,327.485L879.5,322.235L885.5,320.915L885.5,327.395L879.5,327.485M896.5,318.485L896.5,327.235L886.5,327.385L886.5,320.695L896.5,318.485M879.5,328.485L885.5,328.575L885.5,335.385L879.5,334.235L879.5,328.485M896.5,328.735L896.5,337.485L886.5,335.575L886.5,328.585L896.5,328.735Z" style="fill-rule:nonzero;"/>
        </g>
        <g id="Alt-Graph-Taste" serif:id="Alt Graph-Taste">
            <path d="M847,312C847,303.169 839.831,296 831,296L799,296C790.169,296 783,303.169 783,312L783,344C783,352.831 790.169,360 799,360L831,360C839.831,360 847,352.831 847,344L847,312Z" style="fill:white;stroke:black;stroke-width:2px;"/>
            <text x="789.414px" y="335.168px" style="font-family:'Helvetica';font-size:20px;">Alt Gr</text>
        </g>
        <g id="Alt-Taste">
            <path d="M308,312C308,303.169 300.831,296 292,296L260,296C251.169,296 244,303.169 244,312L244,344C244,352.831 251.169,360 260,360L292,360C300.831,360 308,352.831 308,344L308,312Z" style="fill:white;stroke:black;stroke-width:2px;"/>
            <text x="264.418px" y="335.09px" style="font-family:'Helvetica';font-size:20px;">Alt</text>
        </g>
        <g id="Windows-Taste1" serif:id="Windows-Taste">
            <path d="M236,312C236,303.169 228.831,296 220,296L188,296C179.169,296 172,303.169 172,312L172,344C172,352.831 179.169,360 188,360L220,360C228.831,360 236,352.831 236,344L236,312Z" style="fill:white;stroke:black;stroke-width:2px;"/>
            <path d="M195.5,327.5L195.5,322.25L201.5,320.93L201.5,327.41L195.5,327.5M212.5,318.5L212.5,327.25L202.5,327.4L202.5,320.71L212.5,318.5M195.5,328.5L201.5,328.59L201.5,335.4L195.5,334.25L195.5,328.5M212.5,328.75L212.5,337.5L202.5,335.59L202.5,328.6L212.5,328.75Z" style="fill-rule:nonzero;"/>
        </g>
        <g id="linke-Ctrl-Taste" serif:id="linke Ctrl-Taste">
            <path d="M164,312C164,303.169 156.831,296 148,296L96,296C87.169,296 80,303.169 80,312L80,344C80,352.831 87.169,360 96,360L148,360C156.831,360 164,352.831 164,344L164,312Z" style="fill:white;stroke:black;stroke-width:2px;"/>
            <text x="106.683px" y="334.802px" style="font-family:'Helvetica';font-size:20px;">Ctrl</text>
        </g>
        <g id="Fn-Taste">
            <path d="M72,312C72,303.169 64.831,296 56,296L24,296C15.169,296 8,303.169 8,312L8,344C8,352.831 15.169,360 24,360L56,360C64.831,360 72,352.831 72,344L72,312Z" style="fill:white;stroke:black;stroke-width:2px;"/>
            <text x="28.13px" y="335.173px" style="font-family:'Helvetica';font-size:20px;">Fn</text>
        </g>
        <g id="linke-Shift-Taste" serif:id="linke Shift-Taste">
            <path d="M92,240C92,231.169 84.831,224 76,224L24,224C15.169,224 8,231.169 8,240L8,272C8,280.831 15.169,288 24,288L76,288C84.831,288 92,280.831 92,272L92,240Z" style="fill:white;stroke:black;stroke-width:2px;"/>
            <path d="M29,262L29,256L31.17,256L26,250.83L20.83,256L23,256L23,262L29,262M26,248L36,258L31,258L31,264L21,264L21,258L16,258L26,248Z" style="fill-rule:nonzero;"/>
        </g>
        <g id="CapsLock-Taste">
            <path d="M128,168C128,159.169 120.831,152 112,152L24,152C15.169,152 8,159.169 8,168L8,200C8,208.831 15.169,216 24,216L112,216C120.831,216 128,208.831 128,200L128,168Z" style="fill:white;stroke:black;stroke-width:2px;"/>
            <text x="19.297px" y="205.789px" style="font-family:'Helvetica';font-size:16px;">Caps Lock</text>
        </g>
    </g>
    <g id="Reihe-4" serif:id="Reihe 4">
        <g id="Bindestrich-Taste">
            <path d="M884,240C884,231.169 876.831,224 868,224L836,224C827.169,224 820,231.169 820,240L820,272C820,280.831 827.169,288 836,288L868,288C876.831,288 884,280.831 884,272L884,240Z" style="fill:white;stroke:black;stroke-width:2px;"/>
            <text x="832.957px" y="250.191px" style="font-family:'Helvetica';font-size:24px;">_</text>
            <text x="858.938px" y="267.141px" style="font-family:'Helvetica';font-size:32px;">-</text>
        </g>
        <g id="Punkt-Taste">
            <path d="M812,240C812,231.169 804.831,224 796,224L764,224C755.169,224 748,231.169 748,240L748,272C748,280.831 755.169,288 764,288L796,288C804.831,288 812,280.831 812,272L812,240Z" style="fill:white;stroke:black;stroke-width:2px;"/>
            <text x="760.957px" y="250.191px" style="font-family:'Helvetica';font-size:24px;">:</text>
            <text x="786.938px" y="267.141px" style="font-family:'Helvetica';font-size:32px;">.</text>
        </g>
        <g id="Komma-Taste">
            <path d="M740,240C740,231.169 732.831,224 724,224L692,224C683.169,224 676,231.169 676,240L676,272C676,280.831 683.169,288 692,288L724,288C732.831,288 740,280.831 740,272L740,240Z" style="fill:white;stroke:black;stroke-width:2px;"/>
            <text x="688.957px" y="250.191px" style="font-family:'Helvetica';font-size:24px;">;</text>
            <text x="714.938px" y="267.141px" style="font-family:'Helvetica';font-size:32px;">,</text>
        </g>
        <g id="M-Taste">
            <path d="M668,240C668,231.169 660.831,224 652,224L620,224C611.169,224 604,231.169 604,240L604,272C604,280.831 611.169,288 620,288L652,288C660.831,288 668,280.831 668,272L668,240Z" style="fill:white;stroke:black;stroke-width:2px;"/>
            <text x="622.641px" y="267.477px" style="font-family:'Helvetica';font-size:32px;">M</text>
        </g>
        <g id="N-Taste">
            <path d="M596,240C596,231.169 588.831,224 580,224L548,224C539.169,224 532,231.169 532,240L532,272C532,280.831 539.169,288 548,288L580,288C588.831,288 596,280.831 596,272L596,240Z" style="fill:white;stroke:black;stroke-width:2px;"/>
            <text x="552.453px" y="267.477px" style="font-family:'Helvetica';font-size:32px;">N</text>
        </g>
        <g id="B-Taste">
            <path d="M524,240C524,231.169 516.831,224 508,224L476,224C467.169,224 460,231.169 460,240L460,272C460,280.831 467.169,288 476,288L508,288C516.831,288 524,280.831 524,272L524,240Z" style="fill:white;stroke:black;stroke-width:2px;"/>
            <text x="480.789px" y="267.477px" style="font-family:'Helvetica';font-size:32px;">B</text>
        </g>
        <g id="V-Taste">
            <path d="M452,240C452,231.169 444.831,224 436,224L404,224C395.169,224 388,231.169 388,240L388,272C388,280.831 395.169,288 404,288L436,288C444.831,288 452,280.831 452,272L452,240Z" style="fill:white;stroke:black;stroke-width:2px;"/>
            <text x="409.172px" y="267.477px" style="font-family:'Helvetica';font-size:32px;">V</text>
        </g>
        <g id="C-Taste">
            <path d="M380,240C380,231.169 372.831,224 364,224L332,224C323.169,224 316,231.169 316,240L316,272C316,280.831 323.169,288 332,288L364,288C372.831,288 380,280.831 380,272L380,240Z" style="fill:white;stroke:black;stroke-width:2px;"/>
            <text x="336.414px" y="267.492px" style="font-family:'Helvetica';font-size:32px;">C</text>
        </g>
        <g id="X-Taste">
            <path d="M308,240C308,231.169 300.831,224 292,224L260,224C251.169,224 244,231.169 244,240L244,272C244,280.831 251.169,288 260,288L292,288C300.831,288 308,280.831 308,272L308,240Z" style="fill:white;stroke:black;stroke-width:2px;"/>
            <text x="265.266px" y="267.477px" style="font-family:'Helvetica';font-size:32px;">X</text>
        </g>
        <g id="Y-Taste">
            <path d="M236,240C236,231.169 228.831,224 220,224L188,224C179.169,224 172,231.169 172,240L172,272C172,280.831 179.169,288 188,288L220,288C228.831,288 236,280.831 236,272L236,240Z" style="fill:white;stroke:black;stroke-width:2px;"/>
            <text x="193.117px" y="267.477px" style="font-family:'Helvetica';font-size:32px;">Y</text>
        </g>
        <g id="Kleiner-Taste">
            <path d="M164,240C164,231.169 156.831,224 148,224L116,224C107.169,224 100,231.169 100,240L100,272C100,280.831 107.169,288 116,288L148,288C156.831,288 164,280.831 164,272L164,240Z" style="fill:white;stroke:black;stroke-width:2px;"/>
            <text x="116.422px" y="281.461px" style="font-family:'Helvetica';font-size:24px;">\</text>
            <text x="111.922px" y="247.063px" style="font-family:'Helvetica';font-size:24px;">&gt;</text>
            <text x="138.937px" y="267.141px" style="font-family:'Helvetica';font-size:32px;">&lt;</text>
        </g>
    </g>
    <g id="Reihe-3" serif:id="Reihe 3">
        <g id="Dollar-Taste">
            <path d="M992,168C992,159.169 984.831,152 976,152L944,152C935.169,152 928,159.169 928,168L928,200C928,208.831 935.169,216 944,216L976,216C984.831,216 992,208.831 992,200L992,168Z" style="fill:white;stroke:black;stroke-width:2px;"/>
            <text x="941.5px" y="204.664px" style="font-family:'Helvetica';font-size:24px;">}</text>
            <text x="940.957px" y="178.191px" style="font-family:'Helvetica';font-size:24px;">£</text>
            <text x="966.938px" y="195.141px" style="font-family:'Helvetica';font-size:32px;">$</text>
        </g>
        <g id="Ä-Taste">
            <path d="M920,168C920,159.169 912.831,152 904,152L872,152C863.169,152 856,159.169 856,168L856,200C856,208.831 863.169,216 872,216L904,216C912.831,216 920,208.831 920,200L920,168Z" style="fill:white;stroke:black;stroke-width:2px;"/>
            <text x="869.5px" y="204.664px" style="font-family:'Helvetica';font-size:24px;">{</text>
            <text x="868.957px" y="178.191px" style="font-family:'Helvetica';font-size:24px;">à</text>
            <text x="894.938px" y="195.141px" style="font-family:'Helvetica';font-size:32px;">ä</text>
        </g>
        <g id="Ö-Taste">
            <path d="M848,168C848,159.169 840.831,152 832,152L800,152C791.169,152 784,159.169 784,168L784,200C784,208.831 791.169,216 800,216L832,216C840.831,216 848,208.831 848,200L848,168Z" style="fill:rgb(255,222,127);stroke:black;stroke-width:2px;"/>
            <text x="796.957px" y="178.191px" style="font-family:'Helvetica';font-size:24px;">é</text>
            <text x="822.938px" y="195.141px" style="font-family:'Helvetica';font-size:32px;">ö</text>
        </g>
        <g id="L-Taste">
            <path d="M776,168C776,159.169 768.831,152 760,152L728,152C719.169,152 712,159.169 712,168L712,200C712,208.831 719.169,216 728,216L760,216C768.831,216 776,208.831 776,200L776,168Z" style="fill:rgb(165,214,167);stroke:black;stroke-width:2px;"/>
            <text x="734.195px" y="195.172px" style="font-family:'Helvetica';font-size:32px;">L</text>
        </g>
        <g id="K-Taste">
            <path d="M704,168C704,159.169 696.831,152 688,152L656,152C647.169,152 640,159.169 640,168L640,200C640,208.831 647.169,216 656,216L688,216C696.831,216 704,208.831 704,200L704,168Z" style="fill:rgb(144,202,249);stroke:black;stroke-width:2px;"/>
            <text x="660.172px" y="195.477px" style="font-family:'Helvetica';font-size:32px;">K</text>
        </g>
        <g id="J-Taste">
            <path d="M632,168C632,159.169 624.831,152 616,152L584,152C575.169,152 568,159.169 568,168L568,200C568,208.831 575.169,216 584,216L616,216C624.831,216 632,208.831 632,200L632,168Z" style="fill:rgb(239,154,154);stroke:black;stroke-width:2px;"/>
            <text x="592.875px" y="195.172px" style="font-family:'Helvetica';font-size:32px;">J</text>
        </g>
        <g id="H-Taste">
            <path d="M560,168C560,159.169 552.831,152 544,152L512,152C503.169,152 496,159.169 496,168L496,200C496,208.831 503.169,216 512,216L544,216C552.831,216 560,208.831 560,200L560,168Z" style="fill:white;stroke:black;stroke-width:2px;"/>
            <text x="516.375px" y="195.477px" style="font-family:'Helvetica';font-size:32px;">H</text>
        </g>
        <g id="G-Taste">
            <path d="M488,168C488,159.169 480.831,152 472,152L440,152C431.169,152 424,159.169 424,168L424,200C424,208.831 431.169,216 440,216L472,216C480.831,216 488,208.831 488,200L488,168Z" style="fill:white;stroke:black;stroke-width:2px;"/>
            <text x="443.969px" y="195.469px" style="font-family:'Helvetica';font-size:32px;">G</text>
        </g>
        <g id="F-Taste">
            <path d="M416,168C416,159.169 408.831,152 400,152L368,152C359.169,152 352,159.169 352,168L352,200C352,208.831 359.169,216 368,216L400,216C408.831,216 416,208.831 416,200L416,168Z" style="fill:rgb(239,154,154);stroke:black;stroke-width:2px;"/>
            <text x="373.305px" y="195.477px" style="font-family:'Helvetica';font-size:32px;">F</text>
        </g>
        <g id="D-Taste">
            <path d="M344,168C344,159.169 336.831,152 328,152L296,152C287.169,152 280,159.169 280,168L280,200C280,208.831 287.169,216 296,216L328,216C336.831,216 344,208.831 344,200L344,168Z" style="fill:rgb(144,202,249);stroke:black;stroke-width:2px;"/>
            <text x="299.937px" y="195.477px" style="font-family:'Helvetica';font-size:32px;">D</text>
        </g>
        <g id="S-Taste">
            <path d="M272,168C272,159.169 264.831,152 256,152L224,152C215.169,152 208,159.169 208,168L208,200C208,208.831 215.169,216 224,216L256,216C264.831,216 272,208.831 272,200L272,168Z" style="fill:rgb(165,214,167);stroke:black;stroke-width:2px;"/>
            <text x="229.305px" y="196.055px" style="font-family:'Helvetica';font-size:32px;">S</text>
        </g>
        <g id="A-Taste">
            <path d="M200,168C200,159.169 192.831,152 184,152L152,152C143.169,152 136,159.169 136,168L136,200C136,208.831 143.169,216 152,216L184,216C192.831,216 200,208.831 200,200L200,168Z" style="fill:rgb(255,222,127);stroke:black;stroke-width:2px;"/>
            <text x="157.289px" y="195.477px" style="font-family:'Helvetica';font-size:32px;">A</text>
        </g>
    </g>
    <g id="Reihe-2" serif:id="Reihe 2">
        <g id="Umlaut-Taste">
            <path d="M972,96C972,87.169 964.831,80 956,80L924,80C915.169,80 908,87.169 908,96L908,128C908,136.831 915.169,144 924,144L956,144C964.831,144 972,136.831 972,128L972,96Z" style="fill:white;stroke:black;stroke-width:2px;"/>
            <text x="922.361px" y="132.664px" style="font-family:'Helvetica';font-size:24px;">]</text>
            <text x="920.957px" y="106.191px" style="font-family:'Helvetica';font-size:24px;">!</text>
            <text x="946.938px" y="123.141px" style="font-family:'Helvetica';font-size:32px;">¨</text>
        </g>
        <g id="Ü-Taste">
            <path d="M900,96C900,87.169 892.831,80 884,80L852,80C843.169,80 836,87.169 836,96L836,128C836,136.831 843.169,144 852,144L884,144C892.831,144 900,136.831 900,128L900,96Z" style="fill:white;stroke:black;stroke-width:2px;"/>
            <text x="849.5px" y="132.664px" style="font-family:'Helvetica';font-size:24px;">[</text>
            <text x="848.957px" y="106.191px" style="font-family:'Helvetica';font-size:24px;">è</text>
            <text x="874.938px" y="123.141px" style="font-family:'Helvetica';font-size:32px;">ü</text>
        </g>
        <g id="P-Taste">
            <path d="M828,96C828,87.169 820.831,80 812,80L780,80C771.169,80 764,87.169 764,96L764,128C764,136.831 771.169,144 780,144L812,144C820.831,144 828,136.831 828,128L828,96Z" style="fill:white;stroke:black;stroke-width:2px;"/>
            <text x="784.695px" y="123.453px" style="font-family:'Helvetica';font-size:32px;">P</text>
        </g>
        <g id="O-Taste">
            <path d="M756,96C756,87.169 748.831,80 740,80L708,80C699.169,80 692,87.169 692,96L692,128C692,136.831 699.169,144 708,144L740,144C748.831,144 756,136.831 756,128L756,96Z" style="fill:white;stroke:black;stroke-width:2px;"/>
            <text x="711.563px" y="123.453px" style="font-family:'Helvetica';font-size:32px;">O</text>
        </g>
        <g id="I-Taste">
            <path d="M684,96C684,87.169 676.831,80 668,80L636,80C627.169,80 620,87.169 620,96L620,128C620,136.831 627.169,144 636,144L668,144C676.831,144 684,136.831 684,128L684,96Z" style="fill:white;stroke:black;stroke-width:2px;"/>
            <text x="647.289px" y="123.477px" style="font-family:'Helvetica';font-size:32px;">I</text>
        </g>
        <g id="U-Taste">
            <path d="M612,96C612,87.169 604.831,80 596,80L564,80C555.169,80 548,87.169 548,96L548,128C548,136.831 555.169,144 564,144L596,144C604.831,144 612,136.831 612,128L612,96Z" style="fill:white;stroke:black;stroke-width:2px;"/>
            <text x="568.305px" y="123.477px" style="font-family:'Helvetica';font-size:32px;">U</text>
        </g>
        <g id="Z-Taste">
            <path d="M540,96C540,87.169 532.831,80 524,80L492,80C483.169,80 476,87.169 476,96L476,128C476,136.831 483.169,144 492,144L524,144C532.831,144 540,136.831 540,128L540,96Z" style="fill:white;stroke:black;stroke-width:2px;"/>
            <text x="498.227px" y="123.477px" style="font-family:'Helvetica';font-size:32px;">Z</text>
        </g>
        <g id="T-Taste">
            <path d="M468,96C468,87.169 460.831,80 452,80L420,80C411.169,80 404,87.169 404,96L404,128C404,136.831 411.169,144 420,144L452,144C460.831,144 468,136.831 468,128L468,96Z" style="fill:white;stroke:black;stroke-width:2px;"/>
            <text x="426.172px" y="123.477px" style="font-family:'Helvetica';font-size:32px;">T</text>
        </g>
        <g id="R-Taste">
            <path d="M396,96C396,87.169 388.831,80 380,80L348,80C339.169,80 332,87.169 332,96L332,128C332,136.831 339.169,144 348,144L380,144C388.831,144 396,136.831 396,128L396,96Z" style="fill:white;stroke:black;stroke-width:2px;"/>
            <text x="351.656px" y="123.477px" style="font-family:'Helvetica';font-size:32px;">R</text>
        </g>
        <g id="E-Taste">
            <path d="M324,96C324,87.169 316.831,80 308,80L276,80C267.169,80 260,87.169 260,96L260,128C260,136.831 267.169,144 276,144L308,144C316.831,144 324,136.831 324,128L324,96Z" style="fill:white;stroke:black;stroke-width:2px;"/>
            <text x="280.781px" y="123.477px" style="font-family:'Helvetica';font-size:32px;">E</text>
        </g>
        <g id="W-Taste">
            <path d="M252,96C252,87.169 244.831,80 236,80L204,80C195.169,80 188,87.169 188,96L188,128C188,136.831 195.169,144 204,144L236,144C244.831,144 252,136.831 252,128L252,96Z" style="fill:white;stroke:black;stroke-width:2px;"/>
            <text x="204.828px" y="123.477px" style="font-family:'Helvetica';font-size:32px;">W</text>
        </g>
        <g id="Q-Taste">
            <path d="M180,96C180,87.169 172.831,80 164,80L132,80C123.169,80 116,87.169 116,96L116,128C116,136.831 123.169,144 132,144L164,144C172.831,144 180,136.831 180,128L180,96Z" style="fill:white;stroke:black;stroke-width:2px;"/>
            <text x="135.562px" y="122.875px" style="font-family:'Helvetica';font-size:32px;">Q</text>
        </g>
    </g>
    <g id="Reihe-1--Ziffern-" serif:id="Reihe 1 (Ziffern)">
        <g id="Zirkumflex-Taste">
            <path d="M936,24C936,15.169 928.831,8 920,8L888,8C879.169,8 872,15.169 872,24L872,56C872,64.831 879.169,72 888,72L920,72C928.831,72 936,64.831 936,56L936,24Z" style="fill:white;stroke:black;stroke-width:2px;"/>
            <text x="885.191px" y="61.496px" style="font-family:'Helvetica';font-size:24px;">~</text>
            <text x="889.557px" y="40.602px" style="font-family:'Helvetica';font-size:24px;">`</text>
            <text x="910.938px" y="51.141px" style="font-family:'Helvetica';font-size:32px;">^</text>
        </g>
        <g id="Apostroph-Taste">
            <path d="M864,24C864,15.169 856.831,8 848,8L816,8C807.169,8 800,15.169 800,24L800,56C800,64.831 807.169,72 816,72L848,72C856.831,72 864,64.831 864,56L864,24Z" style="fill:white;stroke:black;stroke-width:2px;"/>
            <text x="812.957px" y="34.191px" style="font-family:'Helvetica';font-size:24px;">?</text>
            <text x="838.938px" y="51.141px" style="font-family:'Helvetica';font-size:32px;">&apos;</text>
        </g>
        <g id="_0-Taste" serif:id="0-Taste">
            <path d="M792,24C792,15.169 784.831,8 776,8L744,8C735.169,8 728,15.169 728,24L728,56C728,64.831 735.169,72 744,72L776,72C784.831,72 792,64.831 792,56L792,24Z" style="fill:white;stroke:black;stroke-width:2px;"/>
            <text x="737.227px" y="34.711px" style="font-family:'Helvetica';font-size:24px;">=</text>
            <text x="766.938px" y="51.141px" style="font-family:'Helvetica';font-size:32px;">0</text>
        </g>
        <g id="_9-Taste" serif:id="9-Taste">
            <path d="M720,24C720,15.169 712.831,8 704,8L672,8C663.169,8 656,15.169 656,24L656,56C656,64.831 663.169,72 672,72L704,72C712.831,72 720,64.831 720,56L720,24Z" style="fill:white;stroke:black;stroke-width:2px;"/>
            <text x="665.227px" y="34.711px" style="font-family:'Helvetica';font-size:24px;">)</text>
            <text x="694.938px" y="51.141px" style="font-family:'Helvetica';font-size:32px;">9</text>
        </g>
        <g id="_8-Taste" serif:id="8-Taste">
            <path d="M648,24C648,15.169 640.831,8 632,8L600,8C591.169,8 584,15.169 584,24L584,56C584,64.831 591.169,72 600,72L632,72C640.831,72 648,64.831 648,56L648,24Z" style="fill:white;stroke:black;stroke-width:2px;"/>
            <text x="594.781px" y="62.941px" style="font-family:'Helvetica';font-size:24px;">¢</text>
            <text x="596.957px" y="34.191px" style="font-family:'Helvetica';font-size:24px;">(</text>
            <text x="622.938px" y="51.141px" style="font-family:'Helvetica';font-size:32px;">8</text>
        </g>
        <g id="_7-Taste" serif:id="7-Taste">
            <path d="M576,24C576,15.169 568.831,8 560,8L528,8C519.169,8 512,15.169 512,24L512,56C512,64.831 519.169,72 528,72L560,72C568.831,72 576,64.831 576,56L576,24Z" style="fill:white;stroke:black;stroke-width:2px;"/>
            <text x="524.922px" y="65.117px" style="font-family:'Helvetica';font-size:24px;">|</text>
            <text x="524.957px" y="34.191px" style="font-family:'Helvetica';font-size:24px;">/</text>
            <text x="550.937px" y="51.141px" style="font-family:'Helvetica';font-size:32px;">7</text>
        </g>
        <g id="_6-Taste" serif:id="6-Taste">
            <path d="M504,24C504,15.169 496.831,8 488,8L456,8C447.169,8 440,15.169 440,24L440,56C440,64.831 447.169,72 456,72L488,72C496.831,72 504,64.831 504,56L504,24Z" style="fill:white;stroke:black;stroke-width:2px;"/>
            <text x="452.922px" y="65.117px" style="font-family:'Helvetica';font-size:24px;">¬</text>
            <text x="452.957px" y="34.191px" style="font-family:'Helvetica';font-size:24px;">&amp;</text>
            <text x="478.937px" y="51.141px" style="font-family:'Helvetica';font-size:32px;">6</text>
        </g>
        <g id="_5-Taste" serif:id="5-Taste">
            <path d="M432,24C432,15.169 424.831,8 416,8L384,8C375.169,8 368,15.169 368,24L368,56C368,64.831 375.169,72 384,72L416,72C424.831,72 432,64.831 432,56L432,24Z" style="fill:white;stroke:black;stroke-width:2px;"/>
            <text x="377.227px" y="34.711px" style="font-family:'Helvetica';font-size:24px;">%</text>
            <text x="406.937px" y="51.141px" style="font-family:'Helvetica';font-size:32px;">5</text>
        </g>
        <g id="_4-Taste" serif:id="4-Taste">
            <path d="M360,24C360,15.169 352.831,8 344,8L312,8C303.169,8 296,15.169 296,24L296,56C296,64.831 303.169,72 312,72L344,72C352.831,72 360,64.831 360,56L360,24Z" style="fill:white;stroke:black;stroke-width:2px;"/>
            <text x="309.309px" y="32.459px" style="font-family:'Helvetica';font-size:24px;">ç</text>
            <text x="334.937px" y="51.141px" style="font-family:'Helvetica';font-size:32px;">4</text>
        </g>
        <g id="_3-Taste" serif:id="3-Taste">
            <path d="M288,24C288,15.169 280.831,8 272,8L240,8C231.169,8 224,15.169 224,24L224,56C224,64.831 231.169,72 240,72L272,72C280.831,72 288,64.831 288,56L288,24Z" style="fill:white;stroke:black;stroke-width:2px;"/>
            <text x="236.936px" y="64.215px" style="font-family:'Helvetica';font-size:24px;">#</text>
            <text x="238.992px" y="39.012px" style="font-family:'Helvetica';font-size:24px;">*</text>
            <text x="262.937px" y="51.141px" style="font-family:'Helvetica';font-size:32px;">3</text>
        </g>
        <g id="_2-Taste" serif:id="2-Taste">
            <path d="M216,24C216,15.169 208.831,8 200,8L168,8C159.169,8 152,15.169 152,24L152,56C152,64.831 159.169,72 168,72L200,72C208.831,72 216,64.831 216,56L216,24Z" style="fill:white;stroke:black;stroke-width:2px;"/>
            <text x="158.859px" y="65.32px" style="font-family:'Helvetica';font-size:24px;">@</text>
            <text x="166.992px" y="39.012px" style="font-family:'Helvetica';font-size:24px;">&quot;</text>
            <text x="190.937px" y="51.141px" style="font-family:'Helvetica';font-size:32px;">2</text>
        </g>
        <g id="_1-Taste" serif:id="1-Taste">
            <path d="M144,24C144,15.169 136.831,8 128,8L96,8C87.169,8 80,15.169 80,24L80,56C80,64.831 87.169,72 96,72L128,72C136.831,72 144,64.831 144,56L144,24Z" style="fill:white;stroke:black;stroke-width:2px;"/>
            <text x="96.422px" y="65.461px" style="font-family:'Helvetica';font-size:24px;">|</text>
            <text x="91.922px" y="31.063px" style="font-family:'Helvetica';font-size:24px;">+</text>
            <text x="118.937px" y="51.141px" style="font-family:'Helvetica';font-size:32px;">1</text>
        </g>
        <g id="Paragraph-Taste">
            <path d="M72,24C72,15.169 64.831,8 56,8L24,8C15.169,8 8,15.169 8,24L8,56C8,64.831 15.169,72 24,72L56,72C64.831,72 72,64.831 72,56L72,24Z" style="fill:white;stroke:black;stroke-width:2px;"/>
            <text x="35.16px" y="32.047px" style="font-family:'Helvetica';font-size:24px;">°</text>
            <text x="31.25px" y="59.012px" style="font-family:'Helvetica';font-size:32px;">§</text>
        </g>
        <text x="816.016px" y="66.602px" style="font-family:'Helvetica';font-size:24px;">´</text>
    </g>
    <g>
        <path d="M596.386,640.031L629.03,594.091C633.341,589.179 637.176,576.801 636.552,559.975L677.879,551.5L725.175,549.5L771.879,577.673L811.806,587.712C806.717,700.186 777.634,707.13 776.218,738.376L776.218,780.613L637.218,780.613C637.218,780.613 639.855,753.058 637.218,739.667C630.282,704.451 601.876,669.912 596.386,640.031Z" style="fill:white;stroke:rgb(109,109,109);stroke-width:3px;stroke-linejoin:round;stroke-miterlimit:4;"/>
        <path d="M629.03,594.091L596.386,640.031C589.135,599.551 558.789,532.238 559.001,524.866C559.134,524.42 578.506,505.779 597.702,529.992C614.432,551.094 621.425,602.758 629.03,594.091Z" style="fill:rgb(188,170,164);stroke:rgb(109,109,109);stroke-width:3px;stroke-linejoin:round;stroke-miterlimit:4;"/>
        <path d="M678.487,552.001L636.552,559.975C635.074,520.163 625.603,430.296 626.782,422.275C629.539,403.518 655.926,398.605 662.173,416.988C667.94,433.957 671.216,555.438 678.487,552.001Z" style="fill:rgb(239,154,154);stroke:rgb(109,109,109);stroke-width:3px;stroke-linejoin:round;stroke-miterlimit:4;"/>
        <path d="M725.175,550.423L678.487,552.001C681.424,550.613 674.705,398.347 676.28,387.763C677.777,377.708 686.791,371.843 695.98,372.003C704.087,372.144 712.33,376.976 715.669,387.763C719.755,400.96 718.801,549.476 725.175,550.423Z" style="fill:rgb(144,202,249);stroke:rgb(109,109,109);stroke-width:3px;stroke-linejoin:round;stroke-miterlimit:4;"/>
        <path d="M725.175,550.423C731.95,551.43 730.791,430.923 733.255,408.527C735.525,387.892 768.23,388.238 771.491,410.113C772.944,419.855 764.583,575.097 771.579,577.673L725.175,550.423Z" style="fill:rgb(165,214,167);stroke:rgb(109,109,109);stroke-width:3px;stroke-linejoin:round;stroke-miterlimit:4;"/>
        <path d="M811.806,587.712L771.579,577.673C778.819,580.338 786.461,487.907 793.456,462.339C797.009,449.353 818.202,447.534 824.788,465.105C828.453,474.882 813.891,535.002 811.806,587.712Z" style="fill:rgb(255,224,130);stroke:rgb(109,109,109);stroke-width:3px;stroke-linejoin:round;stroke-miterlimit:4;"/>
    </g>
    <g>
        <path d="M408.991,640.031L376.347,594.091C372.036,589.179 368.201,576.801 368.825,559.975L327.498,551.5L280.202,549.5L233.498,577.673L193.571,587.712C198.66,700.186 227.743,707.13 229.159,738.376L229.159,780.613L368.159,780.613C368.159,780.613 365.522,753.058 368.159,739.667C375.095,704.451 403.501,669.912 408.991,640.031Z" style="fill:white;stroke:rgb(109,109,109);stroke-width:3px;stroke-linejoin:round;stroke-miterlimit:4;"/>
        <path d="M376.347,594.091L408.991,640.031C416.242,599.551 446.588,532.238 446.376,524.866C446.243,524.42 426.871,505.779 407.675,529.992C390.945,551.094 383.952,602.758 376.347,594.091Z" style="fill:rgb(188,170,164);stroke:rgb(109,109,109);stroke-width:3px;stroke-linejoin:round;stroke-miterlimit:4;"/>
        <path d="M326.889,552.001L368.825,559.975C370.303,520.163 379.774,430.296 378.595,422.275C375.838,403.518 349.451,398.605 343.204,416.988C337.437,433.957 334.161,555.438 326.889,552.001Z" style="fill:rgb(239,154,154);stroke:rgb(109,109,109);stroke-width:3px;stroke-linejoin:round;stroke-miterlimit:4;"/>
        <path d="M280.202,550.423L326.889,552.001C323.953,550.613 330.672,398.347 329.097,387.763C327.6,377.708 318.586,371.843 309.397,372.003C301.29,372.144 293.047,376.976 289.708,387.763C285.622,400.96 286.575,549.476 280.202,550.423Z" style="fill:rgb(144,202,249);stroke:rgb(109,109,109);stroke-width:3px;stroke-linejoin:round;stroke-miterlimit:4;"/>
        <path d="M280.202,550.423C273.427,551.43 274.586,430.923 272.122,408.527C269.852,387.892 237.147,388.238 233.886,410.113C232.433,419.855 240.794,575.097 233.798,577.673L280.202,550.423Z" style="fill:rgb(165,214,167);stroke:rgb(109,109,109);stroke-width:3px;stroke-linejoin:round;stroke-miterlimit:4;"/>
        <path d="M193.571,587.712L233.798,577.673C226.558,580.338 218.916,487.907 211.921,462.339C208.368,449.353 187.175,447.534 180.589,465.105C176.924,474.882 191.486,535.002 193.571,587.712Z" style="fill:rgb(255,224,130);stroke:rgb(109,109,109);stroke-width:3px;stroke-linejoin:round;stroke-miterlimit:4;"/>
    </g>
</svg>
