{
  "author_name": "uacescomm",
  "author_uri": "https://www.flickr.com/photos/uacescomm/",
  "licence": "CC-BY-NC-2.0",
  "source_name": "Flickr",
  "source_uri": "https://www.flickr.com/photos/uacescomm/35647082614/"
}
