{
  "todo.workspace-custom-tags" : "Use Global Preferences",
  "todo.workspace-ignore-extensions" : [
    "*.txt"
  ],
  "todo.workspace-ignore-names" : [

  ],
  "workspace.art_style" : 1,
  "workspace.color" : 0,
  "workspace.name" : "ict",
  "workspace.preview_append_paths" : false,
  "workspace.preview_type" : "custom",
  "workspace.preview_url" : "http:\/\/localhost\/rothe.io\/?book=basics"
}
