<?xml version="1.0" encoding="UTF-8" standalone="no"?>
<!-- Generator: Adobe Illustrator 23.0.0, SVG Export Plug-In . SVG Version: 6.00 Build 0)  -->

<svg
   xmlns:dc="http://purl.org/dc/elements/1.1/"
   xmlns:cc="http://creativecommons.org/ns#"
   xmlns:rdf="http://www.w3.org/1999/02/22-rdf-syntax-ns#"
   xmlns:svg="http://www.w3.org/2000/svg"
   xmlns="http://www.w3.org/2000/svg"
   xmlns:sodipodi="http://sodipodi.sourceforge.net/DTD/sodipodi-0.dtd"
   xmlns:inkscape="http://www.inkscape.org/namespaces/inkscape"
   version="1.1"
   id="Layer_1"
   x="0px"
   y="0px"
   viewBox="0 0 800 299.99999"
   xml:space="preserve"
   sodipodi:docname="logo-duckduckgo.svg"
   width="800"
   height="300"
   inkscape:version="0.92.1 r15371"><metadata
     id="metadata92"><rdf:RDF><cc:Work
         rdf:about=""><dc:format>image/svg+xml</dc:format><dc:type
           rdf:resource="http://purl.org/dc/dcmitype/StillImage" /><dc:title></dc:title></cc:Work></rdf:RDF></metadata><defs
     id="defs90" /><sodipodi:namedview
     pagecolor="#ffffff"
     bordercolor="#666666"
     borderopacity="1"
     objecttolerance="10"
     gridtolerance="10"
     guidetolerance="10"
     inkscape:pageopacity="0"
     inkscape:pageshadow="2"
     inkscape:window-width="640"
     inkscape:window-height="480"
     id="namedview88"
     showgrid="false"
     inkscape:zoom="0.807"
     inkscape:cx="-356.383"
     inkscape:cy="70.406141"
     inkscape:current-layer="Layer_1" /><style
     type="text/css"
     id="style2">
	.st0{fill:#DE5833;}
	.st1{fill:#FFFFFF;}
	.st2{fill-rule:evenodd;clip-rule:evenodd;fill:#FED30A;}
	.st3{fill:#2D4F8D;}
	.st4{fill:#D5D7D8;}
	.st5{fill:#67BD47;}
	.st6{fill:#43A347;}
	.st7{fill:#4C4C4C;}
</style><g
     id="g8543"
     transform="matrix(3.0575362,0,0,3.0575362,11.845776,-1112.7625)"><g
       transform="translate(0,375.6)"
       id="g85"><g
         id="g77"><g
           id="g33"><circle
             style="fill:#de5833"
             id="circle4"
             r="30.299999"
             cy="37.400002"
             cx="44.900002"
             class="st0" /><path
             style="fill:#ffffff"
             inkscape:connector-curvature="0"
             id="path6"
             d="M 70.6,26.5 C 69.2,23.2 67.2,20.2 64.6,17.6 62,15 59.1,13 55.7,11.6 52.3,10.1 48.6,9.4 44.9,9.4 c -3.8,0 -7.4,0.7 -10.8,2.2 -3.3,1.4 -6.3,3.4 -8.9,6 -2.6,2.6 -4.6,5.5 -6,8.9 -1.5,3.4 -2.2,7.1 -2.2,10.8 0,3.7 0.7,7.4 2.2,10.8 1.4,3.3 3.4,6.3 6,8.9 2.6,2.6 5.5,4.6 8.9,6 3.4,1.5 7.1,2.2 10.8,2.2 3.8,0 7.4,-0.7 10.8,-2.2 3.3,-1.4 6.3,-3.4 8.9,-6 2.6,-2.6 4.6,-5.5 6,-8.9 1.5,-3.4 2.2,-7.1 2.2,-10.8 0,-3.7 -0.7,-7.3 -2.2,-10.8 z M 51,62.4 C 49.4,59.7 45.2,52 45.2,46.4 45.2,33.4 54,44.5 54,34.1 54,31.6 52.8,22.9 45.2,21.1 43.3,18.6 38.9,16.2 32,17.2 c 0,0 1.2,0.3 2.5,1 0,0 -2.5,0.3 -2.6,2.1 0,0 5,-0.3 7.9,0.7 -6.5,0.8 -9.9,4.2 -9.3,10.5 0.9,8.8 4.6,24.6 5.9,30.1 -9.9,-3.6 -17,-13.1 -17,-24.2 0,-14.2 11.5,-25.7 25.7,-25.7 14.2,0 25.7,11.5 25.7,25.7 -0.1,12.1 -8.5,22.3 -19.8,25 z"
             class="st1" /><path
             style="clip-rule:evenodd;fill:#fed30a;fill-rule:evenodd"
             inkscape:connector-curvature="0"
             d="m 43.6,41.6 c 0,-3.3 4.6,-4.4 6.3,-4.4 4.7,0 11.2,-3 12.8,-2.9 1.6,0.1 2.7,0.7 2.7,1.5 0,1.1 -9.3,5.3 -12.9,4.9 -3.4,-0.3 -4.2,0.1 -4.2,1.5 0,1.2 2.5,2.3 5.2,2.3 4.1,0 8.1,-1.8 9.3,-0.9 1,0.8 -2.8,3.5 -7.2,3.5 -4.4,0 -12,-2.2 -12,-5.5 z"
             class="st2"
             id="Beak_2_" /><g
             id="g17"><path
               style="fill:#2d4f8d"
               inkscape:connector-curvature="0"
               id="path9"
               d="m 51.6,27.4 c -1.2,-1.6 -3.4,-1.6 -4.1,0.2 1.1,-0.9 2.6,-1.1 4.1,-0.2 z"
               class="st3" /><path
               style="fill:#2d4f8d"
               inkscape:connector-curvature="0"
               id="path11"
               d="m 38.1,27.5 c -1.7,-1 -4.5,-1.1 -4.3,2 0.9,-1.9 1.9,-2.3 4.3,-2 z"
               class="st3" /><path
               style="fill:#2d4f8d"
               inkscape:connector-curvature="0"
               id="path13"
               d="m 50.6,30.4 c -0.9,0 -1.7,0.7 -1.7,1.7 0,0.9 0.7,1.7 1.7,1.7 1,0 1.7,-0.7 1.7,-1.7 0,-1 -0.8,-1.7 -1.7,-1.7 z m 0.6,1.5 c -0.3,0 -0.5,-0.2 -0.5,-0.5 0,-0.3 0.2,-0.5 0.5,-0.5 0.3,0 0.5,0.2 0.5,0.5 0,0.3 -0.2,0.5 -0.5,0.5 z"
               class="st3" /><path
               style="fill:#2d4f8d"
               inkscape:connector-curvature="0"
               id="path15"
               d="m 37.7,31.3 c -1.1,0 -1.9,0.9 -1.9,1.9 0,1.1 0.9,1.9 1.9,1.9 1.1,0 1.9,-0.9 1.9,-1.9 0,-1 -0.9,-1.9 -1.9,-1.9 z m 0.7,1.8 c -0.3,0 -0.6,-0.3 -0.6,-0.6 0,-0.3 0.3,-0.6 0.6,-0.6 0.3,0 0.6,0.3 0.6,0.6 -0.1,0.3 -0.3,0.6 -0.6,0.6 z"
               class="st3" /></g><g
             id="g25"><path
               style="fill:#d5d7d8"
               inkscape:connector-curvature="0"
               id="path19"
               d="m 33.5,23.1 c -2.4,1.8 -3.6,4.5 -3.2,8.3 0.9,8.8 4.6,24.6 5.9,30.1 0.5,0.2 0.9,0.3 1.4,0.4 -0.8,-3.4 -4.7,-19.6 -6.4,-32.1 -0.5,-3.2 0.8,-5.1 2.3,-6.7 z"
               class="st4" /><path
               style="fill:#d5d7d8"
               inkscape:connector-curvature="0"
               id="path21"
               d="m 39.5,21 c 0.2,0 0.3,0 0.3,0 -2.7,-1.3 -6.8,-1.3 -7.9,-1.3 -0.1,0.2 -0.2,0.4 -0.2,0.7 0,-0.1 4.9,-0.3 7.8,0.6 z"
               class="st4" /><path
               style="fill:#d5d7d8"
               inkscape:connector-curvature="0"
               id="path23"
               d="m 34.8,18.3 c -0.8,-0.5 -1.5,-0.9 -1.9,-1.1 -0.3,0 -0.7,0.1 -1,0.1 0,0 1.2,0.3 2.5,1 0,0 0,0 -0.1,0 0.3,-0.1 0.5,0 0.5,0 z"
               class="st4" /></g><g
             id="g31"><path
               style="fill:#67bd47"
               inkscape:connector-curvature="0"
               id="path27"
               d="m 55.1,51.8 c -0.9,-0.2 -4.2,2.2 -5.4,3.1 -0.1,-0.2 -0.1,-0.4 -0.2,-0.5 -0.2,-0.5 -3.4,-0.2 -4.2,0.6 -2,-1 -6,-2.8 -6.1,-1.7 -0.1,1.5 0,7.8 0.8,8.3 0.6,0.3 4,-1.5 5.8,-2.5 0,0 0,0 0,0 1.1,0.3 3.1,0 3.8,-0.4 0.1,-0.1 0.1,-0.1 0.2,-0.3 1.6,0.6 4.9,1.8 5.7,1.6 0.9,-0.3 0.7,-7.9 -0.4,-8.2 z"
               class="st5" /><path
               style="fill:#43a347"
               inkscape:connector-curvature="0"
               id="path29"
               d="m 45.9,59.1 c -1.1,-0.2 -0.7,-1.3 -0.7,-3.8 0,0 0,0 0,0 -0.3,0.2 -0.4,0.4 -0.4,0.6 0,2.5 -0.4,3.6 0.7,3.8 1.1,0.3 3.1,0 3.8,-0.4 0.1,-0.1 0.2,-0.3 0.3,-0.5 -0.9,0.3 -2.7,0.6 -3.7,0.3 z"
               class="st6" /></g></g><g
           id="g75"><g
             id="g37"><path
               style="fill:#4c4c4c"
               inkscape:connector-curvature="0"
               id="path35"
               d="m 86.6,45.5 v -18 h 6.5 c 6.2,0 9,4.5 9,8.8 0,4.6 -2.8,9.2 -9,9.2 z m 2.1,-2.1 h 4.5 c 4.8,0 6.9,-3.6 6.9,-7.1 0,-3.3 -2.2,-6.8 -6.9,-6.8 h -4.5 z"
               class="st7" /></g><g
             id="g41"><path
               style="fill:#4c4c4c"
               inkscape:connector-curvature="0"
               id="path39"
               d="m 110.3,45.7 c -3.4,0 -5.5,-2.3 -5.5,-5.8 v -7 h 2 v 6.9 c 0,2.6 1.5,4.1 3.9,4.1 2.3,0 4,-1.8 4,-4.2 v -6.8 h 2 V 45.5 H 115 l -0.1,-2.2 -0.3,0.4 c -1.1,1.3 -2.5,1.9 -4.3,2 z"
               class="st7" /></g><g
             id="g45"><path
               style="fill:#4c4c4c"
               inkscape:connector-curvature="0"
               id="path43"
               d="m 126.2,45.7 c -3.3,0 -6.6,-2 -6.6,-6.5 0,-3.9 2.6,-6.5 6.6,-6.5 1.8,0 3.2,0.6 4.5,1.8 l -1.2,1.2 c -0.9,-0.8 -2,-1.2 -3.2,-1.2 -2.8,0 -4.7,1.9 -4.7,4.7 0,3.2 2.3,4.7 4.7,4.7 1.3,0 2.5,-0.4 3.4,-1.3 l 1.2,1.2 c -1.4,1.2 -3,1.9 -4.7,1.9 z"
               class="st7" /></g><g
             id="g49"><polygon
               style="fill:#4c4c4c"
               id="polygon47"
               points="143.9,45.4 143.9,45.5 141.4,45.5 135.2,39.3 135.2,45.5 133.3,45.5 133.3,27.5 135.2,27.5 135.2,38.4 140.6,32.9 143.2,32.9 137.2,38.8 "
               class="st7" /></g><g
             id="g53"><path
               style="fill:#4c4c4c"
               inkscape:connector-curvature="0"
               id="path51"
               d="m 146.2,45.5 v -18 h 6.5 c 6.2,0 9,4.5 9,8.8 0,4.6 -2.8,9.2 -9,9.2 z m 2.2,-2.1 h 4.5 c 4.8,0 6.9,-3.6 6.9,-7.1 0,-3.3 -2.2,-6.8 -6.9,-6.8 h -4.5 z"
               class="st7" /></g><g
             id="g57"><path
               style="fill:#4c4c4c"
               inkscape:connector-curvature="0"
               id="path55"
               d="m 169.9,45.7 c -3.4,0 -5.5,-2.3 -5.5,-5.8 v -7 h 2 v 6.9 c 0,2.6 1.5,4.1 3.9,4.1 2.3,0 4,-1.8 4,-4.2 v -6.8 h 2 v 12.6 h -1.8 l -0.1,-2.2 -0.3,0.4 c -0.9,1.3 -2.4,1.9 -4.2,2 z"
               class="st7" /></g><g
             id="g61"><path
               style="fill:#4c4c4c"
               inkscape:connector-curvature="0"
               id="path59"
               d="m 185.8,45.7 c -3.3,0 -6.6,-2 -6.6,-6.5 0,-3.9 2.6,-6.5 6.6,-6.5 1.8,0 3.2,0.6 4.5,1.8 l -1.2,1.2 c -0.9,-0.8 -2,-1.2 -3.2,-1.2 -2.8,0 -4.7,1.9 -4.7,4.7 0,3.2 2.3,4.7 4.7,4.7 1.3,0 2.5,-0.4 3.4,-1.3 l 1.2,1.2 -0.1,0.1 v 0 c -1.3,1.2 -2.8,1.8 -4.6,1.8 z"
               class="st7" /></g><g
             id="g65"><polygon
               style="fill:#4c4c4c"
               id="polygon63"
               points="203.5,45.4 203.5,45.5 201,45.5 194.9,39.3 194.9,45.5 193,45.5 193,27.5 194.9,27.5 194.9,38.4 200.3,32.9 202.8,32.9 196.9,38.8 "
               class="st7" /></g><g
             id="g69"><path
               style="fill:#4c4c4c"
               inkscape:connector-curvature="0"
               id="path67"
               d="m 213.6,45.8 c -6.9,0 -9.3,-5 -9.3,-9.1 0,-2.8 0.9,-5.2 2.6,-6.9 1.7,-1.7 4,-2.6 6.7,-2.6 2.5,0 4.7,0.9 6.5,2.6 l -1.2,1.4 c -1.4,-1.3 -3.4,-2.1 -5.3,-2.1 -5,0 -7.3,3.9 -7.3,7.6 0,3.6 2.3,7.2 7.4,7.2 1.8,0 3.6,-0.7 5,-1.8 l 0.1,-0.1 v -4.5 h -5.6 v -1.8 h 7.5 v 7 c -2,2.1 -4.3,3.1 -7.1,3.1 z"
               class="st7" /></g><g
             id="g73"><path
               style="fill:#4c4c4c"
               inkscape:connector-curvature="0"
               id="path71"
               d="m 229.6,45.7 c -3.8,0 -6.5,-2.7 -6.5,-6.5 0,-3.8 2.8,-6.6 6.5,-6.6 3.9,0 6.6,2.7 6.6,6.6 -0.2,3.7 -2.9,6.5 -6.6,6.5 z m 0,-11.4 c -2.7,0 -4.6,2 -4.6,4.8 0,2.7 1.9,4.7 4.6,4.7 2.7,0 4.6,-1.9 4.7,-4.7 -0.2,-2.7 -2,-4.8 -4.7,-4.8 z"
               class="st7" /></g></g></g><g
         id="g83"><path
           style="fill:#4c4c4c"
           inkscape:connector-curvature="0"
           id="path79"
           d="m 238,46.8 v 0 c 0.2,-0.1 0.3,-0.2 0.3,-0.4 0,-0.2 -0.1,-0.3 -0.2,-0.4 -0.1,-0.1 -0.3,-0.1 -0.6,-0.1 -0.3,0 -0.5,0 -0.6,0.1 v 1.6 h 0.4 V 47 h 0.2 c 0.2,0 0.3,0.1 0.3,0.3 0.1,0.2 0.1,0.3 0.1,0.4 h 0.4 c 0,-0.1 -0.1,-0.2 -0.1,-0.4 0.1,-0.3 0,-0.4 -0.2,-0.5 z m -0.4,-0.1 h -0.2 v -0.5 c 0,0 0.1,0 0.2,0 0.2,0 0.3,0.1 0.3,0.2 0.1,0.3 -0.1,0.3 -0.3,0.3 z"
           class="st7" /><path
           style="fill:#4c4c4c"
           inkscape:connector-curvature="0"
           id="path81"
           d="m 237.6,45.2 c -0.9,0 -1.7,0.7 -1.7,1.6 0,0.9 0.7,1.7 1.7,1.7 0.9,0 1.7,-0.7 1.7,-1.7 0,-0.9 -0.7,-1.6 -1.7,-1.6 z m 0.1,2.9 c -0.7,0 -1.3,-0.6 -1.3,-1.3 0,-0.7 0.5,-1.3 1.3,-1.3 0.7,0 1.3,0.6 1.3,1.3 -0.1,0.7 -0.6,1.3 -1.3,1.3 z"
           class="st7" /></g></g></g></svg>