<?xml version="1.0" encoding="UTF-8" standalone="no"?>
<!DOCTYPE svg PUBLIC "-//W3C//DTD SVG 1.1//EN" "http://www.w3.org/Graphics/SVG/1.1/DTD/svg11.dtd">
<svg width="640px" height="240px" version="1.1" xmlns="http://www.w3.org/2000/svg" xmlns:xlink="http://www.w3.org/1999/xlink" xml:space="preserve" xmlns:serif="http://www.serif.com/" style="fill-rule:evenodd;clip-rule:evenodd;stroke-linejoin:round;stroke-miterlimit:2;">
    <g transform="matrix(1,0,0,1,-35,-22)">
        <text x="51px" y="46.596px" style="font-family:'ArialMT', 'Arial', sans-serif;font-size:12px;">Am Zeilenende wird</text>
        <text x="51px" y="58.988px" style="font-family:'ArialMT', 'Arial', sans-serif;font-size:12px;">aus ökonomischen und</text>
        <text x="51px" y="71.381px" style="font-family:'ArialMT', 'Arial', sans-serif;font-size:12px;">ästhetischen Gründen</text>
        <text x="51px" y="83.773px" style="font-family:'ArialMT', 'Arial', sans-serif;font-size:12px;">(die Seite wird</text>
        <text x="51px" y="96.166px" style="font-family:'ArialMT', 'Arial', sans-serif;font-size:12px;">gleichmäßiger gefüllt)</text>
        <text x="51px" y="108.559px" style="font-family:'ArialMT', 'Arial', sans-serif;font-size:12px;">getrennt. In vielen</text>
        <text x="51px" y="120.951px" style="font-family:'ArialMT', 'Arial', sans-serif;font-size:12px;">Sprachen, darunter</text>
        <text x="51px" y="133.344px" style="font-family:'ArialMT', 'Arial', sans-serif;font-size:12px;">auch der deutschen,</text>
        <text x="51px" y="145.736px" style="font-family:'ArialMT', 'Arial', sans-serif;font-size:12px;">sind die</text>
        <text x="51px" y="158.129px" style="font-family:'ArialMT', 'Arial', sans-serif;font-size:12px;">Hauptgrundlage für die</text>
        <text x="51px" y="170.521px" style="font-family:'ArialMT', 'Arial', sans-serif;font-size:12px;">W<tspan x="62.109px 68.783px " y="170.521px 170.521px ">or</tspan>ttrennung die</text>
        <text x="51px" y="182.914px" style="font-family:'ArialMT', 'Arial', sans-serif;font-size:12px;">Zerlegung</text>
        <text x="51px" y="195.307px" style="font-family:'ArialMT', 'Arial', sans-serif;font-size:12px;">zusammengesetzter</text>
        <text x="51px" y="207.699px" style="font-family:'ArialMT', 'Arial', sans-serif;font-size:12px;">Wörter in ihre</text>
        <text x="51px" y="220.092px" style="font-family:'ArialMT', 'Arial', sans-serif;font-size:12px;">Bestandteile und die</text>
        <text x="51px" y="232.484px" style="font-family:'ArialMT', 'Arial', sans-serif;font-size:12px;">anschließende</text>
        <text x="51px" y="244.877px" style="font-family:'ArialMT', 'Arial', sans-serif;font-size:12px;">Zerlegung nach Silben.</text>
    </g>
    <g transform="matrix(1,0,0,1,160,16)">
        <text x="0px" y="8.596px" style="font-family:'ArialMT', 'Arial', sans-serif;font-size:12px;">Am Zeilenende wird</text>
        <text x="0px" y="20.988px" style="font-family:'ArialMT', 'Arial', sans-serif;font-size:12px;">aus ökonomischen und</text>
        <text x="0px" y="33.381px" style="font-family:'ArialMT', 'Arial', sans-serif;font-size:12px;">ästhetischen Gründen</text>
        <text x="0px" y="45.773px" style="font-family:'ArialMT', 'Arial', sans-serif;font-size:12px;">(die Seite wird gleich-</text>
        <text x="0px" y="58.166px" style="font-family:'ArialMT', 'Arial', sans-serif;font-size:12px;">mäßiger gefüllt) ge-</text>
        <text x="0px" y="70.559px" style="font-family:'ArialMT', 'Arial', sans-serif;font-size:12px;">trennt. In vielen Spra-</text>
        <text x="0px" y="82.951px" style="font-family:'ArialMT', 'Arial', sans-serif;font-size:12px;">chen, darunter auch der</text>
        <text x="0px" y="95.344px" style="font-family:'ArialMT', 'Arial', sans-serif;font-size:12px;">deutschen, sind die</text>
        <text x="0px" y="107.736px" style="font-family:'ArialMT', 'Arial', sans-serif;font-size:12px;">Hauptgrundlage für die</text>
        <text x="0px" y="120.129px" style="font-family:'ArialMT', 'Arial', sans-serif;font-size:12px;">W<tspan x="11.109px 17.783px " y="120.129px 120.129px ">or</tspan>ttrennung die Zer-</text>
        <text x="0px" y="132.521px" style="font-family:'ArialMT', 'Arial', sans-serif;font-size:12px;">legung zusammen-</text>
        <text x="0px" y="144.914px" style="font-family:'ArialMT', 'Arial', sans-serif;font-size:12px;">gesetzter Wörter in ihre</text>
        <text x="0px" y="157.307px" style="font-family:'ArialMT', 'Arial', sans-serif;font-size:12px;">Bestandteile und die</text>
        <text x="0px" y="169.699px" style="font-family:'ArialMT', 'Arial', sans-serif;font-size:12px;">anschließende  Zer-</text>
        <text x="0px" y="182.092px" style="font-family:'ArialMT', 'Arial', sans-serif;font-size:12px;">legung nach Silben.</text>
    </g>
    <g transform="matrix(1,0,0,1,301,-22)">
        <text x="51px" y="46.596px" style="font-family:'ArialMT', 'Arial', sans-serif;font-size:12px;">Am <tspan x="72.09px " y="46.596px ">Z</tspan>eilenende <tspan x="134.56px " y="46.596px ">w</tspan>ird <tspan x="159.652px " y="46.596px ">a</tspan>us</text>
        <text x="51px" y="58.988px" style="font-family:'ArialMT', 'Arial', sans-serif;font-size:12px;">ökonomischen <tspan x="158.979px " y="58.988px ">u</tspan>nd</text>
        <text x="51px" y="71.381px" style="font-family:'ArialMT', 'Arial', sans-serif;font-size:12px;">ästhetischen <tspan x="132.301px " y="71.381px ">G</tspan>ründen</text>
        <text x="51px" y="83.773px" style="font-family:'ArialMT', 'Arial', sans-serif;font-size:12px;">(die <tspan x="100.328px " y="83.773px ">S</tspan>eite <tspan x="156.998px " y="83.773px ">w</tspan>ird</text>
        <text x="51px" y="96.166px" style="font-family:'ArialMT', 'Arial', sans-serif;font-size:12px;">gleichmäßiger <tspan x="142.982px " y="96.166px ">g</tspan>efüllt)</text>
        <text x="51px" y="108.559px" style="font-family:'ArialMT', 'Arial', sans-serif;font-size:12px;">getrennt. <tspan x="118.003px " y="108.559px ">I</tspan>n <tspan x="147.646px " y="108.559px ">v</tspan>ielen</text>
        <text x="51px" y="120.951px" style="font-family:'ArialMT', 'Arial', sans-serif;font-size:12px;">Sprachen, <tspan x="134.305px " y="120.951px ">d</tspan>arunter</text>
        <text x="51px" y="133.344px" style="font-family:'ArialMT', 'Arial', sans-serif;font-size:12px;">auch <tspan x="89.983px " y="133.344px ">d</tspan>er <tspan x="120.289px " y="133.344px ">d</tspan>eutschen,</text>
        <text x="51px" y="145.736px" style="font-family:'ArialMT', 'Arial', sans-serif;font-size:12px;">sind <tspan x="162.986px " y="145.736px ">d</tspan>ie</text>
        <text x="51px" y="158.129px" style="font-family:'ArialMT', 'Arial', sans-serif;font-size:12px;">Hauptgrundlage <tspan x="142.691px " y="158.129px ">f</tspan>ür <tspan x="162.986px " y="158.129px ">d</tspan>ie</text>
        <text x="51px" y="170.521px" style="font-family:'ArialMT', 'Arial', sans-serif;font-size:12px;">W<tspan x="62.109px 68.783px " y="170.521px 170.521px ">or</tspan>ttrennung <tspan x="162.986px " y="170.521px ">d</tspan>ie</text>
        <text x="51px" y="182.914px" style="font-family:'ArialMT', 'Arial', sans-serif;font-size:12px;">Z<tspan x="67.576px 83.495px 96.737px 108.648px 124.568px 140.487px 156.407px 172.326px " y="182.914px 182.914px 182.914px 182.914px 182.914px 182.914px 182.914px 182.914px ">erlegung</tspan></text>
        <text x="51px" y="195.307px" style="font-family:'ArialMT', 'Arial', sans-serif;font-size:12px;">z<tspan x="58.247px 66.168px 73.415px 81.336px 92.579px 103.822px 111.743px 119.664px 127.585px 135.506px 142.753px 150.674px 155.255px 162.502px 167.083px 175.004px " y="195.307px 195.307px 195.307px 195.307px 195.307px 195.307px 195.307px 195.307px 195.307px 195.307px 195.307px 195.307px 195.307px 195.307px 195.307px 195.307px ">usammengesetzter</tspan></text>
        <text x="51px" y="207.699px" style="font-family:'ArialMT', 'Arial', sans-serif;font-size:12px;">Wörter <tspan x="118.325px " y="207.699px ">i</tspan>n <tspan x="158.99px " y="207.699px ">i</tspan>hre</text>
        <text x="51px" y="220.092px" style="font-family:'ArialMT', 'Arial', sans-serif;font-size:12px;">Bestandteile <tspan x="130.006px " y="220.092px ">u</tspan>nd <tspan x="162.986px " y="220.092px ">d</tspan>ie</text>
        <text x="51px" y="232.484px" style="font-family:'ArialMT', 'Arial', sans-serif;font-size:12px;">a<tspan x="61.836px 72.672px 82.834px 92.997px 103.833px 110.661px 117.489px 128.326px 139.818px 150.654px 161.49px 172.326px " y="232.484px 232.484px 232.484px 232.484px 232.484px 232.484px 232.484px 232.484px 232.484px 232.484px 232.484px 232.484px ">nschließende</tspan></text>
        <text x="51px" y="244.877px" style="font-family:'ArialMT', 'Arial', sans-serif;font-size:12px;">Zerlegung nach Silben.</text>
    </g>
    <g transform="matrix(1,0,0,1,496,16)">
        <text x="0px" y="8.596px" style="font-family:'ArialMT', 'Arial', sans-serif;font-size:12px;">Am <tspan x="21.09px " y="8.596px ">Z</tspan>eilenende <tspan x="83.56px " y="8.596px ">w</tspan>ird <tspan x="108.652px " y="8.596px ">a</tspan>us</text>
        <text x="0px" y="20.988px" style="font-family:'ArialMT', 'Arial', sans-serif;font-size:12px;">ökonomischen <tspan x="107.979px " y="20.988px ">u</tspan>nd</text>
        <text x="0px" y="33.381px" style="font-family:'ArialMT', 'Arial', sans-serif;font-size:12px;">ästhetischen <tspan x="81.301px " y="33.381px ">G</tspan>ründen</text>
        <text x="0px" y="45.773px" style="font-family:'ArialMT', 'Arial', sans-serif;font-size:12px;">(die <tspan x="27.772px " y="45.773px ">S</tspan>eite <tspan x="62.886px " y="45.773px ">w</tspan>ird <tspan x="92.65px " y="45.773px ">g</tspan>leich-</text>
        <text x="0px" y="58.166px" style="font-family:'ArialMT', 'Arial', sans-serif;font-size:12px;">mäßiger <tspan x="59.324px " y="58.166px ">g</tspan>efüllt) <tspan x="110.656px " y="58.166px ">g</tspan>e-</text>
        <text x="0px" y="70.559px" style="font-family:'ArialMT', 'Arial', sans-serif;font-size:12px;">trennt. <tspan x="41.778px " y="70.559px ">I</tspan>n <tspan x="59.544px " y="70.559px ">v</tspan>ielen <tspan x="98.656px " y="70.559px ">S</tspan>pra-</text>
        <text x="0px" y="82.951px" style="font-family:'ArialMT', 'Arial', sans-serif;font-size:12px;">chen, <tspan x="32.883px " y="82.951px ">d</tspan>arunter <tspan x="81.107px " y="82.951px ">a</tspan>uch <tspan x="110.656px " y="82.951px ">d</tspan>er</text>
        <text x="0px" y="95.344px" style="font-family:'ArialMT', 'Arial', sans-serif;font-size:12px;">deutschen, <tspan x="74.342px " y="95.344px ">s</tspan>ind <tspan x="111.986px " y="95.344px ">d</tspan>ie</text>
        <text x="0px" y="107.736px" style="font-family:'ArialMT', 'Arial', sans-serif;font-size:12px;">Hauptgrundlage <tspan x="91.691px " y="107.736px ">f</tspan>ür <tspan x="111.986px " y="107.736px ">d</tspan>ie</text>
        <text x="0px" y="120.129px" style="font-family:'ArialMT', 'Arial', sans-serif;font-size:12px;">W<tspan x="11.109px 17.783px " y="120.129px 120.129px ">or</tspan>ttrennung <tspan x="81.238px " y="120.129px ">d</tspan>ie <tspan x="106.004px " y="120.129px ">Z</tspan>er-</text>
        <text x="0px" y="132.521px" style="font-family:'ArialMT', 'Arial', sans-serif;font-size:12px;">legung <tspan x="65.316px " y="132.521px ">z</tspan>usammen-</text>
        <text x="0px" y="144.914px" style="font-family:'ArialMT', 'Arial', sans-serif;font-size:12px;">gesetzter <tspan x="53.79px " y="144.914px ">W</tspan>örter <tspan x="94.22px " y="144.914px ">i</tspan>n <tspan x="107.99px " y="144.914px ">i</tspan>hre</text>
        <text x="0px" y="157.307px" style="font-family:'ArialMT', 'Arial', sans-serif;font-size:12px;">Bestandteile <tspan x="79.006px " y="157.307px ">u</tspan>nd <tspan x="111.986px " y="157.307px ">d</tspan>ie</text>
        <text x="0px" y="169.699px" style="font-family:'ArialMT', 'Arial', sans-serif;font-size:12px;">anschließende <tspan x="92.028px 106.004px " y="169.699px 169.699px "> Z</tspan>er-</text>
        <text x="0px" y="182.092px" style="font-family:'ArialMT', 'Arial', sans-serif;font-size:12px;">legung nach Silben.</text>
    </g>
</svg>
