<?xml version="1.0" encoding="UTF-8" standalone="no"?>
<!DOCTYPE svg PUBLIC "-//W3C//DTD SVG 1.1//EN" "http://www.w3.org/Graphics/SVG/1.1/DTD/svg11.dtd">
<svg width="748px" height="224px" version="1.1" xmlns="http://www.w3.org/2000/svg" xmlns:xlink="http://www.w3.org/1999/xlink" xml:space="preserve" xmlns:serif="http://www.serif.com/" style="fill-rule:evenodd;clip-rule:evenodd;stroke-linecap:round;stroke-miterlimit:1;">
    <g id="Reihe-4" serif:id="Reihe 4">
        <g id="M-Taste">
            <path d="M560,168C560,159.169 552.831,152 544,152L512,152C503.169,152 496,159.169 496,168L496,200C496,208.831 503.169,216 512,216L544,216C552.831,216 560,208.831 560,200L560,168Z" style="fill:rgb(255,222,127);stroke:black;stroke-width:2px;"/>
            <text x="514.641px" y="195.477px" style="font-family:'Helvetica';font-size:32px;">M</text>
        </g>
        <g id="N-Taste">
            <path d="M488,168C488,159.169 480.831,152 472,152L440,152C431.169,152 424,159.169 424,168L424,200C424,208.831 431.169,216 440,216L472,216C480.831,216 488,208.831 488,200L488,168Z" style="fill:white;stroke:black;stroke-width:2px;"/>
            <text x="444.453px" y="195.477px" style="font-family:'Helvetica';font-size:32px;">N</text>
        </g>
        <g id="B-Taste">
            <path d="M416,168C416,159.169 408.831,152 400,152L368,152C359.169,152 352,159.169 352,168L352,200C352,208.831 359.169,216 368,216L400,216C408.831,216 416,208.831 416,200L416,168Z" style="fill:white;stroke:black;stroke-width:2px;"/>
            <text x="372.789px" y="195.477px" style="font-family:'Helvetica';font-size:32px;">B</text>
        </g>
        <g id="V-Taste">
            <path d="M344,168C344,159.169 336.831,152 328,152L296,152C287.169,152 280,159.169 280,168L280,200C280,208.831 287.169,216 296,216L328,216C336.831,216 344,208.831 344,200L344,168Z" style="fill:white;stroke:black;stroke-width:2px;"/>
            <text x="301.172px" y="195.477px" style="font-family:'Helvetica';font-size:32px;">V</text>
        </g>
        <g id="C-Taste">
            <path d="M272,168C272,159.169 264.831,152 256,152L224,152C215.169,152 208,159.169 208,168L208,200C208,208.831 215.169,216 224,216L256,216C264.831,216 272,208.831 272,200L272,168Z" style="fill:white;stroke:black;stroke-width:2px;"/>
            <text x="228.414px" y="195.492px" style="font-family:'Helvetica';font-size:32px;">C</text>
        </g>
        <g id="X-Taste">
            <path d="M200,168C200,159.169 192.831,152 184,152L152,152C143.169,152 136,159.169 136,168L136,200C136,208.831 143.169,216 152,216L184,216C192.831,216 200,208.831 200,200L200,168Z" style="fill:white;stroke:black;stroke-width:2px;"/>
            <text x="157.266px" y="195.477px" style="font-family:'Helvetica';font-size:32px;">X</text>
        </g>
        <g id="Y-Taste">
            <path d="M128,168C128,159.169 120.831,152 112,152L80,152C71.169,152 64,159.169 64,168L64,200C64,208.831 71.169,216 80,216L112,216C120.831,216 128,208.831 128,200L128,168Z" style="fill:rgb(255,222,127);stroke:black;stroke-width:2px;"/>
            <text x="85.117px" y="195.477px" style="font-family:'Helvetica';font-size:32px;">Y</text>
        </g>
    </g>
    <g id="Reihe-3" serif:id="Reihe 3">
        <g id="Ö-Taste">
            <path d="M740,96C740,87.169 732.831,80 724,80L692,80C683.169,80 676,87.169 676,96L676,128C676,136.831 683.169,144 692,144L724,144C732.831,144 740,136.831 740,128L740,96Z" style="fill:rgb(255,222,127);stroke:black;stroke-width:2px;"/>
        </g>
        <g id="L-Taste">
            <path d="M668,96C668,87.169 660.831,80 652,80L620,80C611.169,80 604,87.169 604,96L604,128C604,136.831 611.169,144 620,144L652,144C660.831,144 668,136.831 668,128L668,96Z" style="fill:white;stroke:black;stroke-width:2px;"/>
            <text x="626.195px" y="123.172px" style="font-family:'Helvetica';font-size:32px;">L</text>
        </g>
        <g id="K-Taste">
            <path d="M596,96C596,87.169 588.831,80 580,80L548,80C539.169,80 532,87.169 532,96L532,128C532,136.831 539.169,144 548,144L580,144C588.831,144 596,136.831 596,128L596,96Z" style="fill:white;stroke:black;stroke-width:2px;"/>
            <text x="552.172px" y="123.477px" style="font-family:'Helvetica';font-size:32px;">K</text>
        </g>
        <g id="J-Taste">
            <path d="M524,96C524,87.169 516.831,80 508,80L476,80C467.169,80 460,87.169 460,96L460,128C460,136.831 467.169,144 476,144L508,144C516.831,144 524,136.831 524,128L524,96Z" style="fill:white;stroke:black;stroke-width:2px;"/>
            <text x="484.875px" y="123.172px" style="font-family:'Helvetica';font-size:32px;">J</text>
        </g>
        <g id="H-Taste">
            <path d="M452,96C452,87.169 444.831,80 436,80L404,80C395.169,80 388,87.169 388,96L388,128C388,136.831 395.169,144 404,144L436,144C444.831,144 452,136.831 452,128L452,96Z" style="fill:white;stroke:black;stroke-width:2px;"/>
            <text x="408.375px" y="123.477px" style="font-family:'Helvetica';font-size:32px;">H</text>
        </g>
        <g id="G-Taste">
            <path d="M380,96C380,87.169 372.831,80 364,80L332,80C323.169,80 316,87.169 316,96L316,128C316,136.831 323.169,144 332,144L364,144C372.831,144 380,136.831 380,128L380,96Z" style="fill:white;stroke:black;stroke-width:2px;"/>
            <text x="335.969px" y="123.469px" style="font-family:'Helvetica';font-size:32px;">G</text>
        </g>
        <g id="F-Taste">
            <path d="M308,96C308,87.169 300.831,80 292,80L260,80C251.169,80 244,87.169 244,96L244,128C244,136.831 251.169,144 260,144L292,144C300.831,144 308,136.831 308,128L308,96Z" style="fill:white;stroke:black;stroke-width:2px;"/>
            <text x="265.305px" y="123.477px" style="font-family:'Helvetica';font-size:32px;">F</text>
        </g>
        <g id="D-Taste">
            <path d="M236,96C236,87.169 228.831,80 220,80L188,80C179.169,80 172,87.169 172,96L172,128C172,136.831 179.169,144 188,144L220,144C228.831,144 236,136.831 236,128L236,96Z" style="fill:white;stroke:black;stroke-width:2px;"/>
            <text x="191.938px" y="123.477px" style="font-family:'Helvetica';font-size:32px;">D</text>
        </g>
        <g id="S-Taste">
            <path d="M164,96C164,87.169 156.831,80 148,80L116,80C107.169,80 100,87.169 100,96L100,128C100,136.831 107.169,144 116,144L148,144C156.831,144 164,136.831 164,128L164,96Z" style="fill:white;stroke:black;stroke-width:2px;"/>
            <text x="121.305px" y="124.055px" style="font-family:'Helvetica';font-size:32px;">S</text>
        </g>
        <g id="A-Taste">
            <path d="M92,96C92,87.169 84.831,80 76,80L44,80C35.169,80 28,87.169 28,96L28,128C28,136.831 35.169,144 44,144L76,144C84.831,144 92,136.831 92,128L92,96Z" style="fill:rgb(255,222,127);stroke:black;stroke-width:2px;"/>
            <text x="49.289px" y="123.477px" style="font-family:'Helvetica';font-size:32px;">A</text>
        </g>
    </g>
    <g id="Reihe-2" serif:id="Reihe 2">
        <g id="P-Taste">
            <path d="M720,24C720,15.169 712.831,8 704,8L672,8C663.169,8 656,15.169 656,24L656,56C656,64.831 663.169,72 672,72L704,72C712.831,72 720,64.831 720,56L720,24Z" style="fill:white;stroke:black;stroke-width:2px;"/>
            <text x="676.695px" y="51.453px" style="font-family:'Helvetica';font-size:32px;">P</text>
        </g>
        <g id="O-Taste">
            <path d="M648,24C648,15.169 640.831,8 632,8L600,8C591.169,8 584,15.169 584,24L584,56C584,64.831 591.169,72 600,72L632,72C640.831,72 648,64.831 648,56L648,24Z" style="fill:white;stroke:black;stroke-width:2px;"/>
            <text x="603.563px" y="51.453px" style="font-family:'Helvetica';font-size:32px;">O</text>
        </g>
        <g id="I-Taste">
            <path d="M576,24C576,15.169 568.831,8 560,8L528,8C519.169,8 512,15.169 512,24L512,56C512,64.831 519.169,72 528,72L560,72C568.831,72 576,64.831 576,56L576,24Z" style="fill:white;stroke:black;stroke-width:2px;"/>
            <text x="539.289px" y="51.477px" style="font-family:'Helvetica';font-size:32px;">I</text>
        </g>
        <g id="U-Taste">
            <path d="M504,24C504,15.169 496.831,8 488,8L456,8C447.169,8 440,15.169 440,24L440,56C440,64.831 447.169,72 456,72L488,72C496.831,72 504,64.831 504,56L504,24Z" style="fill:white;stroke:black;stroke-width:2px;"/>
            <text x="460.305px" y="51.477px" style="font-family:'Helvetica';font-size:32px;">U</text>
        </g>
        <g id="Z-Taste">
            <path d="M432,24C432,15.169 424.831,8 416,8L384,8C375.169,8 368,15.169 368,24L368,56C368,64.831 375.169,72 384,72L416,72C424.831,72 432,64.831 432,56L432,24Z" style="fill:rgb(255,222,127);stroke:black;stroke-width:2px;"/>
            <text x="390.227px" y="51.477px" style="font-family:'Helvetica';font-size:32px;">Z</text>
        </g>
        <g id="T-Taste">
            <path d="M360,24C360,15.169 352.831,8 344,8L312,8C303.169,8 296,15.169 296,24L296,56C296,64.831 303.169,72 312,72L344,72C352.831,72 360,64.831 360,56L360,24Z" style="fill:white;stroke:black;stroke-width:2px;"/>
            <text x="318.172px" y="51.477px" style="font-family:'Helvetica';font-size:32px;">T</text>
        </g>
        <g id="R-Taste">
            <path d="M288,24C288,15.169 280.831,8 272,8L240,8C231.169,8 224,15.169 224,24L224,56C224,64.831 231.169,72 240,72L272,72C280.831,72 288,64.831 288,56L288,24Z" style="fill:white;stroke:black;stroke-width:2px;"/>
            <text x="243.656px" y="51.477px" style="font-family:'Helvetica';font-size:32px;">R</text>
        </g>
        <g id="E-Taste">
            <path d="M216,24C216,15.169 208.831,8 200,8L168,8C159.169,8 152,15.169 152,24L152,56C152,64.831 159.169,72 168,72L200,72C208.831,72 216,64.831 216,56L216,24Z" style="fill:white;stroke:black;stroke-width:2px;"/>
            <text x="172.781px" y="51.477px" style="font-family:'Helvetica';font-size:32px;">E</text>
        </g>
        <g id="W-Taste">
            <path d="M144,24C144,15.169 136.831,8 128,8L96,8C87.169,8 80,15.169 80,24L80,56C80,64.831 87.169,72 96,72L128,72C136.831,72 144,64.831 144,56L144,24Z" style="fill:rgb(255,222,127);stroke:black;stroke-width:2px;"/>
            <text x="96.828px" y="51.477px" style="font-family:'Helvetica';font-size:32px;">W</text>
        </g>
        <g id="Q-Taste">
            <path d="M72,24C72,15.169 64.831,8 56,8L24,8C15.169,8 8,15.169 8,24L8,56C8,64.831 15.169,72 24,72L56,72C64.831,72 72,64.831 72,56L72,24Z" style="fill:rgb(255,222,127);stroke:black;stroke-width:2px;"/>
            <text x="27.562px" y="50.875px" style="font-family:'Helvetica';font-size:32px;">Q</text>
        </g>
    </g>
</svg>
